3er Año/Organizacion de las computadoras/Tema 4 - Memoria del sistema/Guia Practica 8/top_tb.vcd
$date
	Sun Nov 03 18:15:34 2024
$end
$version
	Icarus Verilog
$end
$timescale
	1ps
$end
$scope module top_tb $end
$var wire 32 ! sal [31:0] $end
$var parameter 32 " DURATION $end
$var reg 1 # clk $end
$var reg 32 $ ent [31:0] $end
$var reg 1 % rst $end
$scope module UUT $end
$var wire 1 # clk $end
$var wire 32 & ent [31:0] $end
$var wire 1 % rst $end
$var wire 32 ' sal [31:0] $end
$var wire 1 ( we_s $end
$var wire 16 ) pc_s [15:0] $end
$var wire 32 * instruccion_s [31:0] $end
$var wire 32 + dataWrite_s [31:0] $end
$var wire 32 , dataRead_s [31:0] $end
$var wire 16 - addrData_s [15:0] $end
$scope module mem $end
$var wire 1 # clk $end
$var wire 1 ( we_s $end
$var wire 16 . pc_s [15:0] $end
$var wire 32 / instruccion_s [31:0] $end
$var wire 32 0 dataWrite_s [31:0] $end
$var wire 32 1 dataRead_s [31:0] $end
$var wire 16 2 addrData_s [15:0] $end
$scope module memoria_datos $end
$var wire 1 # clk $end
$var wire 32 3 rd [31:0] $end
$var wire 1 ( we $end
$var wire 32 4 wdata [31:0] $end
$var wire 16 5 addr [15:0] $end
$upscope $end
$scope module memoria_instrucciones $end
$var wire 32 6 instruccion [31:0] $end
$var wire 16 7 addr [15:0] $end
$upscope $end
$upscope $end
$scope module rv $end
$var wire 1 # clk $end
$var wire 32 8 dataRead_s [31:0] $end
$var wire 32 9 instruccion_s [31:0] $end
$var wire 1 % rst $end
$var wire 1 : zero $end
$var wire 2 ; resultSrc [1:0] $end
$var wire 16 < pc_s [15:0] $end
$var wire 1 = pcSRC $end
$var wire 2 > immSrc [1:0] $end
$var wire 32 ? dataWrite_s [31:0] $end
$var wire 32 @ aluresult [31:0] $end
$var wire 3 A alucontrol [2:0] $end
$var wire 1 B aluSrc $end
$var wire 16 C addrData_s [15:0] $end
$var wire 1 ( MemWrite_s $end
$var wire 1 D BRwe $end
$scope module datapath $end
$var wire 32 E ReadData [31:0] $end
$var wire 1 # clk $end
$var wire 32 F cuatro [31:0] $end
$var wire 32 G instruccion [31:0] $end
$var wire 1 % rst $end
$var wire 1 : zero $end
$var wire 32 H writeBR_data [31:0] $end
$var wire 32 I srcB [31:0] $end
$var wire 2 J resultSrc [1:0] $end
$var wire 32 K rd2 [31:0] $end
$var wire 32 L rd1 [31:0] $end
$var wire 16 M pcnext [15:0] $end
$var wire 32 N pcaux [31:0] $end
$var wire 32 O pc_target [31:0] $end
$var wire 32 P pc_plus4 [31:0] $end
$var wire 1 = pcSRC $end
$var wire 16 Q pc [15:0] $end
$var wire 2 R immSrc [1:0] $end
$var wire 32 S immNext [31:0] $end
$var wire 3 T alucontrol [2:0] $end
$var wire 1 B aluSrc $end
$var wire 1 D BRwe $end
$var wire 32 U ALU_R [31:0] $end
$scope module adder_imm $end
$var wire 32 V a [31:0] $end
$var wire 32 W r [31:0] $end
$var wire 32 X b [31:0] $end
$upscope $end
$scope module adder_pc4 $end
$var wire 32 Y a [31:0] $end
$var wire 32 Z b [31:0] $end
$var wire 32 [ r [31:0] $end
$upscope $end
$scope module alu_s $end
$var wire 32 \ result [31:0] $end
$var wire 1 : zero $end
$var wire 32 ] B [31:0] $end
$var wire 3 ^ ALUControl [2:0] $end
$var wire 32 _ A [31:0] $end
$var reg 32 ` R [31:0] $end
$upscope $end
$scope module br_s $end
$var wire 5 a a1 [4:0] $end
$var wire 5 b a2 [4:0] $end
$var wire 5 c a3 [4:0] $end
$var wire 1 # clk $end
$var wire 1 D we $end
$var wire 32 d wdata3 [31:0] $end
$var wire 32 e rs2 [31:0] $end
$var wire 32 f rs1 [31:0] $end
$upscope $end
$scope module mul_alu $end
$var wire 32 g a [31:0] $end
$var wire 32 h b [31:0] $end
$var wire 32 i c [31:0] $end
$var wire 2 j sel [1:0] $end
$var wire 32 k out [31:0] $end
$upscope $end
$scope module mul_pc $end
$var wire 32 l a [31:0] $end
$var wire 32 m b [31:0] $end
$var wire 1 = sel $end
$var wire 32 n out [31:0] $end
$upscope $end
$scope module mul_srcB $end
$var wire 32 o a [31:0] $end
$var wire 1 B sel $end
$var wire 32 p out [31:0] $end
$var wire 32 q b [31:0] $end
$upscope $end
$scope module pc_s $end
$var wire 1 # clk $end
$var wire 16 r pcnext [15:0] $end
$var reg 16 s pc [15:0] $end
$upscope $end
$scope module se_s $end
$var wire 32 t instruccion [31:0] $end
$var wire 32 u immnext [31:0] $end
$var wire 2 v immSrc [1:0] $end
$var reg 32 w immnext_reg [31:0] $end
$upscope $end
$upscope $end
$scope module unitControl $end
$var wire 3 x f3_s [2:0] $end
$var wire 1 y f7_5_s $end
$var wire 7 z opcode_s [6:0] $end
$var wire 1 : zero $end
$var wire 2 { resultSrc_s [1:0] $end
$var wire 1 D regWrite_s $end
$var wire 1 = pcSrc_s $end
$var wire 1 ( memWrite_s $end
$var wire 2 | inmSrc_s [1:0] $end
$var wire 1 B aluSrc_s $end
$var wire 2 } aluOp_s [1:0] $end
$var wire 3 ~ aluCtrl_s [2:0] $end
$scope module alu_dec $end
$var wire 3 !" aluCtrl [2:0] $end
$var wire 3 "" f3 [2:0] $end
$var wire 1 y f7_5 $end
$var wire 1 #" op_5 $end
$var wire 2 $" aluOp [1:0] $end
$var reg 3 %" alu_reg [2:0] $end
$upscope $end
$scope module main_dec $end
$var wire 7 &" op [6:0] $end
$var wire 1 = pcSrc $end
$var wire 1 : zero $end
$var wire 2 '" resultSrc [1:0] $end
$var wire 1 D regWrite $end
$var wire 1 ( memWrite $end
$var wire 1 (" jump $end
$var wire 2 )" inmSrc [1:0] $end
$var wire 1 *" branch $end
$var wire 1 B aluSrc $end
$var wire 2 +" aluOp [1:0] $end
$var reg 11 ," signals [10:0] $end
$upscope $end
$upscope $end
$upscope $end
$upscope $end
$upscope $end
$enddefinitions $end
$comment Show the parameter values. $end
$dumpall
b111110100 "
$end
#0
$dumpvars
bx ,"
bx +"
x*"
bx )"
x("
bx '"
bx &"
bx %"
bx $"
x#"
bx ""
bx !"
bx ~
bx }
bx |
bx {
bx z
xy
bx x
bx w
bx v
bx u
bx t
bx s
b0 r
bx q
bx p
bx o
bx n
bx m
bx l
bx k
bx j
bx i
bx h
bx g
bx f
bx e
bx d
bx c
bx b
bx a
bx `
bx _
bx ^
bx ]
bx \
bx [
b100 Z
b0xxxxxxxxxxxxxxxx Y
bx X
bx W
b0xxxxxxxxxxxxxxxx V
bx U
bx T
bx S
bx R
bx Q
bx P
bx O
bx N
b0 M
bx L
bx K
bx J
bx I
bx H
bx G
b100 F
bx E
xD
bx C
xB
bx A
bx @
bx ?
bx >
x=
bx <
bx ;
x:
bx 9
bx 8
bx 7
bx 6
bx 5
bx 4
bx 3
bx 2
bx 1
bx 0
bx /
bx .
bx -
bx ,
bx +
bx *
bx )
x(
bx '
bx &
1%
bx $
0#
bx !
$end
#50000
b11 H
b11 d
b11 k
0:
b11 -
b11 2
b11 5
b11 C
b11 @
b11 U
b11 \
b11 g
b11 `
b100 N
b100 n
0=
b11 I
b11 ]
b11 p
b11 O
b11 W
b11 m
b11 S
b11 X
b11 q
b11 u
b11 w
0("
b10 }
b10 $"
b10 +"
0*"
b0 ;
b0 J
b0 j
b0 {
b0 '"
0(
1B
b0 >
b0 R
b0 v
b0 |
b0 )"
1D
b10010000100 ,"
0#"
b0 A
b0 T
b0 ^
b0 ~
b0 !"
b0 %"
b0 L
b0 _
b0 f
b10011 z
b10011 &"
b0 x
b0 ""
0y
b0 a
b11 b
b1000 c
b0 V
b100 P
b100 [
b100 i
b100 l
b0 Y
b1100000000010000010011 *
b1100000000010000010011 /
b1100000000010000010011 6
b1100000000010000010011 9
b1100000000010000010011 G
b1100000000010000010011 t
b0 )
b0 .
b0 7
b0 <
b0 Q
b0 s
1#
#100000
b100 M
b100 r
0#
0%
#150000
b1 H
b1 d
b1 k
b1 -
b1 2
b1 5
b1 C
b1000 M
b1000 r
b1 @
b1 U
b1 \
b1 g
b1 `
b1 I
b1 ]
b1 p
b1000 N
b1000 n
b1 b
b1001 c
b1 S
b1 X
b1 q
b1 u
b1 w
b101 O
b101 W
b101 m
b100 V
b1000 P
b1000 [
b1000 i
b1000 l
b100 Y
b100000000010010010011 *
b100000000010010010011 /
b100000000010010010011 6
b100000000010010010011 9
b100000000010010010011 G
b100000000010010010011 t
b100 )
b100 .
b100 7
b100 <
b100 Q
b100 s
1#
#200000
0#
#250000
b10000 H
b10000 d
b10000 k
b10000 -
b10000 2
b10000 5
b10000 C
b1100 M
b1100 r
b10000 @
b10000 U
b10000 \
b10000 g
b10000 `
b10000 I
b10000 ]
b10000 p
b1100 N
b1100 n
b10000 b
b10010 c
b10000 S
b10000 X
b10000 q
b10000 u
b10000 w
b11000 O
b11000 W
b11000 m
b1000 V
b1100 P
b1100 [
b1100 i
b1100 l
b1000 Y
b1000000000000100100010011 *
b1000000000000100100010011 /
b1000000000000100100010011 6
b1000000000000100100010011 9
b1000000000000100100010011 G
b1000000000000100100010011 t
b1000 )
b1000 .
b1000 7
b1000 <
b1000 Q
b1000 s
1#
#300000
0#
#350000
0B
b10000000100 ,"
b11 H
b11 d
b11 k
b11 -
b11 2
b11 5
b11 C
b10000 M
b10000 r
b11 @
b11 U
b11 \
b11 g
b11 `
1#"
b11 A
b11 T
b11 ^
b11 ~
b11 !"
b11 %"
b11 L
b11 _
b11 f
b1 +
b1 0
b1 4
b1 ?
b1 K
b1 e
b1 o
b1 I
b1 ]
b1 p
b10000 N
b10000 n
b110011 z
b110011 &"
b110 x
b110 ""
b1000 a
b1001 b
b101 c
b1001 S
b1001 X
b1001 q
b1001 u
b1001 w
b10101 O
b10101 W
b10101 m
b1100 V
b10000 P
b10000 [
b10000 i
b10000 l
b1100 Y
b100101000110001010110011 *
b100101000110001010110011 /
b100101000110001010110011 6
b100101000110001010110011 9
b100101000110001010110011 G
b100101000110001010110011 t
b1100 )
b1100 .
b1100 7
b1100 <
b1100 Q
b1100 s
1#
#400000
0#
#450000
b1 H
b1 d
b1 k
b1 -
b1 2
b1 5
b1 C
b10100 M
b10100 r
b1 @
b1 U
b1 \
b1 g
b1 `
b10 A
b10 T
b10 ^
b10 ~
b10 !"
b10 %"
b10100 N
b10100 n
b111 x
b111 ""
b110 c
b11001 O
b11001 W
b11001 m
b10000 V
b10100 P
b10100 [
b10100 i
b10100 l
b10000 Y
b100101000111001100110011 *
b100101000111001100110011 /
b100101000111001100110011 6
b100101000111001100110011 9
b100101000111001100110011 G
b100101000111001100110011 t
b10000 )
b10000 .
b10000 7
b10000 <
b10000 Q
b10000 s
1#
#500000
0#
#550000
b100 H
b100 d
b100 k
b100 -
b100 2
b100 5
b100 C
b11000 M
b11000 r
b100 @
b100 U
b100 \
b100 g
b100 `
b0 A
b0 T
b0 ^
b0 ~
b0 !"
b0 %"
b11000 N
b11000 n
b0 x
b0 ""
b111 c
b11101 O
b11101 W
b11101 m
b10100 V
b11000 P
b11000 [
b11000 i
b11000 l
b10100 Y
b100101000000001110110011 *
b100101000000001110110011 /
b100101000000001110110011 6
b100101000000001110110011 9
b100101000000001110110011 G
b100101000000001110110011 t
b10100 )
b10100 .
b10100 7
b10100 <
b10100 Q
b10100 s
1#
#600000
0#
#650000
b10 H
b10 d
b10 k
b10 -
b10 2
b10 5
b10 C
b11100 M
b11100 r
b10 @
b10 U
b10 \
b10 g
b10 `
b1 A
b1 T
b1 ^
b1 ~
b1 !"
b1 %"
b11100 N
b11100 n
1y
b11100 c
b10000001001 S
b10000001001 X
b10000001001 q
b10000001001 u
b10000001001 w
b10000100001 O
b10000100001 W
b10000100001 m
b11000 V
b11100 P
b11100 [
b11100 i
b11100 l
b11000 Y
b1000000100101000000111000110011 *
b1000000100101000000111000110011 /
b1000000100101000000111000110011 6
b1000000100101000000111000110011 9
b1000000100101000000111000110011 G
b1000000100101000000111000110011 t
b11000 )
b11000 .
b11000 7
b11000 <
b11000 Q
b11000 s
1#
#700000
0#
#750000
b11111111111111111111111111111110 H
b11111111111111111111111111111110 d
b11111111111111111111111111111110 k
b1111111111111110 -
b1111111111111110 2
b1111111111111110 5
b1111111111111110 C
b100000 M
b100000 r
b11111111111111111111111111111110 @
b11111111111111111111111111111110 U
b11111111111111111111111111111110 \
b11111111111111111111111111111110 g
b11111111111111111111111111111110 `
b11 I
b11 ]
b11 p
b1 L
b1 _
b1 f
b11 +
b11 0
b11 4
b11 ?
b11 K
b11 e
b11 o
b100000 N
b100000 n
b1001 a
b1000 b
b11101 c
b10000001000 S
b10000001000 X
b10000001000 q
b10000001000 u
b10000001000 w
b10000100100 O
b10000100100 W
b10000100100 m
b11100 V
b100000 P
b100000 [
b100000 i
b100000 l
b11100 Y
b1000000100001001000111010110011 *
b1000000100001001000111010110011 /
b1000000100001001000111010110011 6
b1000000100001001000111010110011 9
b1000000100001001000111010110011 G
b1000000100001001000111010110011 t
b11100 )
b11100 .
b11100 7
b11100 <
b11100 Q
b11100 s
1#
#800000
0#
#850000
b0 H
b0 d
b0 k
1:
b0 -
b0 2
b0 5
b0 C
b100100 M
b100100 r
b0 @
b0 U
b0 \
b0 g
b0 `
b1 I
b1 ]
b1 p
b101 A
b101 T
b101 ^
b101 ~
b101 !"
b101 %"
b11 L
b11 _
b11 f
b1 +
b1 0
b1 4
b1 ?
b1 K
b1 e
b1 o
b100100 N
b100100 n
b10 x
b10 ""
0y
b1000 a
b1001 b
b11110 c
b1001 S
b1001 X
b1001 q
b1001 u
b1001 w
b101001 O
b101001 W
b101001 m
b100000 V
b100100 P
b100100 [
b100100 i
b100100 l
b100000 Y
b100101000010111100110011 *
b100101000010111100110011 /
b100101000010111100110011 6
b100101000010111100110011 9
b100101000010111100110011 G
b100101000010111100110011 t
b100000 )
b100000 .
b100000 7
b100000 <
b100000 Q
b100000 s
1#
#900000
0#
#950000
b1 H
b1 d
b1 k
0:
b1 -
b1 2
b1 5
b1 C
b101000 M
b101000 r
b1 @
b1 U
b1 \
b1 g
b1 `
b11 I
b11 ]
b11 p
b1 L
b1 _
b1 f
b11 +
b11 0
b11 4
b11 ?
b11 K
b11 e
b11 o
b101000 N
b101000 n
b1001 a
b1000 b
b11111 c
b1000 S
b1000 X
b1000 q
b1000 u
b1000 w
b101100 O
b101100 W
b101100 m
b100100 V
b101000 P
b101000 [
b101000 i
b101000 l
b100100 Y
b100001001010111110110011 *
b100001001010111110110011 /
b100001001010111110110011 6
b100001001010111110110011 9
b100001001010111110110011 G
b100001001010111110110011 t
b100100 )
b100100 .
b100100 7
b100100 <
b100100 Q
b100100 s
1#
#1000000
0#
#1050000
b101100 M
b101100 r
b11111111111111111111111111111110 I
b11111111111111111111111111111110 ]
b11111111111111111111111111111110 p
b11111111111111111111111111111110 +
b11111111111111111111111111111110 0
b11111111111111111111111111111110 4
b11111111111111111111111111111110 ?
b11111111111111111111111111111110 K
b11111111111111111111111111111110 e
b11111111111111111111111111111110 o
b101100 N
b101100 n
b11101 b
b11101 S
b11101 X
b11101 q
b11101 u
b11101 w
b1000101 O
b1000101 W
b1000101 m
b101000 V
b101100 P
b101100 [
b101100 i
b101100 l
b101000 Y
b1110101001010111110110011 *
b1110101001010111110110011 /
b1110101001010111110110011 6
b1110101001010111110110011 9
b1110101001010111110110011 G
b1110101001010111110110011 t
b101000 )
b101000 .
b101000 7
b101000 <
b101000 Q
b101000 s
1#
#1100000
0#
#1150000
1B
b10010000100 ,"
b1 H
b1 d
b1 k
0:
b1 -
b1 2
b1 5
b1 C
b110000 M
b110000 r
b1 @
b1 U
b1 \
b1 g
b1 `
b1 I
b1 ]
b1 p
0#"
b0 A
b0 T
b0 ^
b0 ~
b0 !"
b0 %"
b0 L
b0 _
b0 f
bx +
bx 0
bx 4
bx ?
bx K
bx e
bx o
b110000 N
b110000 n
b10011 z
b10011 &"
b0 x
b0 ""
b0 a
b1 b
b101 c
b1 S
b1 X
b1 q
b1 u
b1 w
b101101 O
b101101 W
b101101 m
b101100 V
b110000 P
b110000 [
b110000 i
b110000 l
b101100 Y
b100000000001010010011 *
b100000000001010010011 /
b100000000001010010011 6
b100000000001010010011 9
b100000000001010010011 G
b100000000001010010011 t
b101100 )
b101100 .
b101100 7
b101100 <
b101100 Q
b101100 s
1#
#1200000
0#
#1250000
b0 H
b0 d
b0 k
1:
b0 -
b0 2
b0 5
b0 C
b110100 M
b110100 r
b0 @
b0 U
b0 \
b0 g
b0 `
b0 +
b0 0
b0 4
b0 ?
b0 K
b0 e
b0 o
b0 I
b0 ]
b0 p
b110100 N
b110100 n
b0 b
b110 c
b0 S
b0 X
b0 q
b0 u
b0 w
b110000 O
b110000 W
b110000 m
b110000 V
b110100 P
b110100 [
b110100 i
b110100 l
b110000 Y
b1100010011 *
b1100010011 /
b1100010011 6
b1100010011 9
b1100010011 G
b1100010011 t
b110000 )
b110000 .
b110000 7
b110000 <
b110000 Q
b110000 s
1#
#1300000
0#
#1350000
b1 A
b1 T
b1 ^
b1 ~
b1 !"
b1 %"
b1 }
b1 $"
b1 +"
1*"
0B
b10 >
b10 R
b10 v
b10 |
b10 )"
0D
b1000001010 ,"
b11111111111111111111111111110001 H
b11111111111111111111111111110001 d
b11111111111111111111111111110001 k
0:
b1111111111110001 -
b1111111111110001 2
b1111111111110001 5
b1111111111110001 C
b111000 M
b111000 r
b11111111111111111111111111110001 @
b11111111111111111111111111110001 U
b11111111111111111111111111110001 \
b11111111111111111111111111110001 g
b11111111111111111111111111110001 `
1#"
b1 L
b1 _
b1 f
b10000 +
b10000 0
b10000 4
b10000 ?
b10000 K
b10000 e
b10000 o
b10000 I
b10000 ]
b10000 p
b111000 N
b111000 n
b1100011 z
b1100011 &"
b101 a
b10010 b
b10000 c
b10000 S
b10000 X
b10000 q
b10000 u
b10000 w
b1000100 O
b1000100 W
b1000100 m
b110100 V
b111000 P
b111000 [
b111000 i
b111000 l
b110100 Y
b1001000101000100001100011 *
b1001000101000100001100011 /
b1001000101000100001100011 6
b1001000101000100001100011 9
b1001000101000100001100011 G
b1001000101000100001100011 t
b110100 )
b110100 .
b110100 7
b110100 <
b110100 Q
b110100 s
1#
#1400000
0#
#1450000
b0 A
b0 T
b0 ^
b0 ~
b0 !"
b0 %"
b10 }
b10 $"
b10 +"
0*"
b0 >
b0 R
b0 v
b0 |
b0 )"
1D
b10000000100 ,"
0=
b10 H
b10 d
b10 k
0:
b10 -
b10 2
b10 5
b10 C
b10 @
b10 U
b10 \
b10 g
b10 `
b111100 M
b111100 r
b1 I
b1 ]
b1 p
b1 +
b1 0
b1 4
b1 ?
b1 K
b1 e
b1 o
b111100 N
b111100 n
b110011 z
b110011 &"
b101 b
b101 c
b101 S
b101 X
b101 q
b101 u
b101 w
b111101 O
b111101 W
b111101 m
b111000 V
b111100 P
b111100 [
b111100 i
b111100 l
b111000 Y
b10100101000001010110011 *
b10100101000001010110011 /
b10100101000001010110011 6
b10100101000001010110011 9
b10100101000001010110011 G
b10100101000001010110011 t
b111000 )
b111000 .
b111000 7
b111000 <
b111000 Q
b111000 s
1#
#1500000
0#
#1550000
1B
b10010000100 ,"
b1 H
b1 d
b1 k
0:
b1 -
b1 2
b1 5
b1 C
b1000000 M
b1000000 r
b1 @
b1 U
b1 \
b1 g
b1 `
b1 I
b1 ]
b1 p
0#"
b0 L
b0 _
b0 f
bx +
bx 0
bx 4
bx ?
bx K
bx e
bx o
b1000000 N
b1000000 n
b10011 z
b10011 &"
b110 a
b1 b
b110 c
b1 S
b1 X
b1 q
b1 u
b1 w
b111101 O
b111101 W
b111101 m
b111100 V
b1000000 P
b1000000 [
b1000000 i
b1000000 l
b111100 Y
b100110000001100010011 *
b100110000001100010011 /
b100110000001100010011 6
b100110000001100010011 9
b100110000001100010011 G
b100110000001100010011 t
b111100 )
b111100 .
b111100 7
b111100 <
b111100 Q
b111100 s
1#
#1600000
0#
#1650000
x:
1=
1("
b0 }
b0 $"
b0 +"
b10 ;
b10 J
b10 j
b10 {
b10 '"
0B
b11 >
b11 R
b11 v
b11 |
b11 )"
b11100100001 ,"
b1000100 H
b1000100 d
b1000100 k
b110100 M
b110100 r
bx -
bx 2
bx 5
bx C
1#"
b0 A
b0 T
b0 ^
b0 ~
b0 !"
b0 %"
bx I
bx ]
bx p
bx @
bx U
bx \
bx g
bx `
b110100 N
b110100 n
b1101111 z
b1101111 &"
b111 x
b111 ""
1y
b11111 a
b10101 b
b0 c
b11111111111111111111111111110100 S
b11111111111111111111111111110100 X
b11111111111111111111111111110100 q
b11111111111111111111111111110100 u
b11111111111111111111111111110100 w
b1 L
b1 _
b1 f
b110100 O
b110100 W
b110100 m
b1000000 V
b1000100 P
b1000100 [
b1000100 i
b1000100 l
b1000000 Y
b11111111010111111111000001101111 *
b11111111010111111111000001101111 /
b11111111010111111111000001101111 6
b11111111010111111111000001101111 9
b11111111010111111111000001101111 G
b11111111010111111111000001101111 t
b1000000 )
b1000000 .
b1000000 7
b1000000 <
b1000000 Q
b1000000 s
1#
#1700000
0#
#1750000
0=
b1 A
b1 T
b1 ^
b1 ~
b1 !"
b1 %"
0("
b1 }
b1 $"
b1 +"
1*"
b0 ;
b0 J
b0 j
b0 {
b0 '"
b10 >
b10 R
b10 v
b10 |
b10 )"
0D
b1000001010 ,"
0:
b1111111111110010 -
b1111111111110010 2
b1111111111110010 5
b1111111111110010 C
b111000 M
b111000 r
b11111111111111111111111111110010 @
b11111111111111111111111111110010 U
b11111111111111111111111111110010 \
b11111111111111111111111111110010 g
b11111111111111111111111111110010 `
b10000 I
b10000 ]
b10000 p
b10 L
b10 _
b10 f
b10000 +
b10000 0
b10000 4
b10000 ?
b10000 K
b10000 e
b10000 o
b111000 N
b111000 n
b11111111111111111111111111110010 H
b11111111111111111111111111110010 d
b11111111111111111111111111110010 k
b1100011 z
b1100011 &"
b0 x
b0 ""
0y
b101 a
b10010 b
b10000 c
b10000 S
b10000 X
b10000 q
b10000 u
b10000 w
b1000100 O
b1000100 W
b1000100 m
b110100 V
b111000 P
b111000 [
b111000 i
b111000 l
b110100 Y
b1001000101000100001100011 *
b1001000101000100001100011 /
b1001000101000100001100011 6
b1001000101000100001100011 9
b1001000101000100001100011 G
b1001000101000100001100011 t
b110100 )
b110100 .
b110100 7
b110100 <
b110100 Q
b110100 s
1#
#1800000
0#
#1850000
b0 A
b0 T
b0 ^
b0 ~
b0 !"
b0 %"
b10 }
b10 $"
b10 +"
0*"
b0 >
b0 R
b0 v
b0 |
b0 )"
1D
b10000000100 ,"
0=
b100 H
b100 d
b100 k
0:
b100 -
b100 2
b100 5
b100 C
b100 @
b100 U
b100 \
b100 g
b100 `
b111100 M
b111100 r
b10 I
b10 ]
b10 p
b10 +
b10 0
b10 4
b10 ?
b10 K
b10 e
b10 o
b111100 N
b111100 n
b110011 z
b110011 &"
b101 b
b101 c
b101 S
b101 X
b101 q
b101 u
b101 w
b111101 O
b111101 W
b111101 m
b111000 V
b111100 P
b111100 [
b111100 i
b111100 l
b111000 Y
b10100101000001010110011 *
b10100101000001010110011 /
b10100101000001010110011 6
b10100101000001010110011 9
b10100101000001010110011 G
b10100101000001010110011 t
b111000 )
b111000 .
b111000 7
b111000 <
b111000 Q
b111000 s
1#
#1900000
0#
#1950000
1B
b10010000100 ,"
b10 H
b10 d
b10 k
0:
b10 -
b10 2
b10 5
b10 C
b1000000 M
b1000000 r
b10 @
b10 U
b10 \
b10 g
b10 `
b1 I
b1 ]
b1 p
0#"
b1 L
b1 _
b1 f
bx +
bx 0
bx 4
bx ?
bx K
bx e
bx o
b1000000 N
b1000000 n
b10011 z
b10011 &"
b110 a
b1 b
b110 c
b1 S
b1 X
b1 q
b1 u
b1 w
b111101 O
b111101 W
b111101 m
b111100 V
b1000000 P
b1000000 [
b1000000 i
b1000000 l
b111100 Y
b100110000001100010011 *
b100110000001100010011 /
b100110000001100010011 6
b100110000001100010011 9
b100110000001100010011 G
b100110000001100010011 t
b111100 )
b111100 .
b111100 7
b111100 <
b111100 Q
b111100 s
1#
#2000000
0#
#2050000
x:
1=
1("
b0 }
b0 $"
b0 +"
b10 ;
b10 J
b10 j
b10 {
b10 '"
0B
b11 >
b11 R
b11 v
b11 |
b11 )"
b11100100001 ,"
b1000100 H
b1000100 d
b1000100 k
b110100 M
b110100 r
bx -
bx 2
bx 5
bx C
1#"
b0 A
b0 T
b0 ^
b0 ~
b0 !"
b0 %"
bx I
bx ]
bx p
bx @
bx U
bx \
bx g
bx `
b110100 N
b110100 n
b1101111 z
b1101111 &"
b111 x
b111 ""
1y
b11111 a
b10101 b
b0 c
b11111111111111111111111111110100 S
b11111111111111111111111111110100 X
b11111111111111111111111111110100 q
b11111111111111111111111111110100 u
b11111111111111111111111111110100 w
b1 L
b1 _
b1 f
b110100 O
b110100 W
b110100 m
b1000000 V
b1000100 P
b1000100 [
b1000100 i
b1000100 l
b1000000 Y
b11111111010111111111000001101111 *
b11111111010111111111000001101111 /
b11111111010111111111000001101111 6
b11111111010111111111000001101111 9
b11111111010111111111000001101111 G
b11111111010111111111000001101111 t
b1000000 )
b1000000 .
b1000000 7
b1000000 <
b1000000 Q
b1000000 s
1#
#2100000
0#
#2150000
0=
b1 A
b1 T
b1 ^
b1 ~
b1 !"
b1 %"
0("
b1 }
b1 $"
b1 +"
1*"
b0 ;
b0 J
b0 j
b0 {
b0 '"
b10 >
b10 R
b10 v
b10 |
b10 )"
0D
b1000001010 ,"
0:
b1111111111110100 -
b1111111111110100 2
b1111111111110100 5
b1111111111110100 C
b111000 M
b111000 r
b11111111111111111111111111110100 @
b11111111111111111111111111110100 U
b11111111111111111111111111110100 \
b11111111111111111111111111110100 g
b11111111111111111111111111110100 `
b10000 I
b10000 ]
b10000 p
b100 L
b100 _
b100 f
b10000 +
b10000 0
b10000 4
b10000 ?
b10000 K
b10000 e
b10000 o
b111000 N
b111000 n
b11111111111111111111111111110100 H
b11111111111111111111111111110100 d
b11111111111111111111111111110100 k
b1100011 z
b1100011 &"
b0 x
b0 ""
0y
b101 a
b10010 b
b10000 c
b10000 S
b10000 X
b10000 q
b10000 u
b10000 w
b1000100 O
b1000100 W
b1000100 m
b110100 V
b111000 P
b111000 [
b111000 i
b111000 l
b110100 Y
b1001000101000100001100011 *
b1001000101000100001100011 /
b1001000101000100001100011 6
b1001000101000100001100011 9
b1001000101000100001100011 G
b1001000101000100001100011 t
b110100 )
b110100 .
b110100 7
b110100 <
b110100 Q
b110100 s
1#
#2200000
0#
#2250000
b0 A
b0 T
b0 ^
b0 ~
b0 !"
b0 %"
b10 }
b10 $"
b10 +"
0*"
b0 >
b0 R
b0 v
b0 |
b0 )"
1D
b10000000100 ,"
0=
b1000 H
b1000 d
b1000 k
0:
b1000 -
b1000 2
b1000 5
b1000 C
b1000 @
b1000 U
b1000 \
b1000 g
b1000 `
b111100 M
b111100 r
b100 I
b100 ]
b100 p
b100 +
b100 0
b100 4
b100 ?
b100 K
b100 e
b100 o
b111100 N
b111100 n
b110011 z
b110011 &"
b101 b
b101 c
b101 S
b101 X
b101 q
b101 u
b101 w
b111101 O
b111101 W
b111101 m
b111000 V
b111100 P
b111100 [
b111100 i
b111100 l
b111000 Y
b10100101000001010110011 *
b10100101000001010110011 /
b10100101000001010110011 6
b10100101000001010110011 9
b10100101000001010110011 G
b10100101000001010110011 t
b111000 )
b111000 .
b111000 7
b111000 <
b111000 Q
b111000 s
1#
#2300000
0#
#2350000
1B
b10010000100 ,"
b11 H
b11 d
b11 k
0:
b11 -
b11 2
b11 5
b11 C
b1000000 M
b1000000 r
b11 @
b11 U
b11 \
b11 g
b11 `
b1 I
b1 ]
b1 p
0#"
b10 L
b10 _
b10 f
bx +
bx 0
bx 4
bx ?
bx K
bx e
bx o
b1000000 N
b1000000 n
b10011 z
b10011 &"
b110 a
b1 b
b110 c
b1 S
b1 X
b1 q
b1 u
b1 w
b111101 O
b111101 W
b111101 m
b111100 V
b1000000 P
b1000000 [
b1000000 i
b1000000 l
b111100 Y
b100110000001100010011 *
b100110000001100010011 /
b100110000001100010011 6
b100110000001100010011 9
b100110000001100010011 G
b100110000001100010011 t
b111100 )
b111100 .
b111100 7
b111100 <
b111100 Q
b111100 s
1#
#2400000
0#
#2450000
x:
1=
1("
b0 }
b0 $"
b0 +"
b10 ;
b10 J
b10 j
b10 {
b10 '"
0B
b11 >
b11 R
b11 v
b11 |
b11 )"
b11100100001 ,"
b1000100 H
b1000100 d
b1000100 k
b110100 M
b110100 r
bx -
bx 2
bx 5
bx C
1#"
b0 A
b0 T
b0 ^
b0 ~
b0 !"
b0 %"
bx I
bx ]
bx p
bx @
bx U
bx \
bx g
bx `
b110100 N
b110100 n
b1101111 z
b1101111 &"
b111 x
b111 ""
1y
b11111 a
b10101 b
b0 c
b11111111111111111111111111110100 S
b11111111111111111111111111110100 X
b11111111111111111111111111110100 q
b11111111111111111111111111110100 u
b11111111111111111111111111110100 w
b1 L
b1 _
b1 f
b110100 O
b110100 W
b110100 m
b1000000 V
b1000100 P
b1000100 [
b1000100 i
b1000100 l
b1000000 Y
b11111111010111111111000001101111 *
b11111111010111111111000001101111 /
b11111111010111111111000001101111 6
b11111111010111111111000001101111 9
b11111111010111111111000001101111 G
b11111111010111111111000001101111 t
b1000000 )
b1000000 .
b1000000 7
b1000000 <
b1000000 Q
b1000000 s
1#
#2500000
0#
